<?xml version="1.0" encoding="utf-8"?>
<!-- Generator: Adobe Illustrator 22.0.1, SVG Export Plug-In . SVG Version: 6.00 Build 0)  -->
<svg version="1.1" id="Layer_1" xmlns="http://www.w3.org/2000/svg" xmlns:xlink="http://www.w3.org/1999/xlink" x="0px" y="0px"
	 viewBox="0 0 480 200" style="enable-background:new 0 0 480 200;" xml:space="preserve">
<style type="text/css">
	.st0{fill:#F4F4F4;}
	.st1{fill:#01579B;}
	.st2{fill:#005ECB;}
	.st3{fill:#263238;}
	.st4{fill:#005005;}
</style>
<g>
	<path class="st4" d="M52.9,78.1c0.5,0.6,0.8,1.3,0.8,2c0,0.8-0.3,1.5-0.8,2c-0.5,0.5-1.2,0.8-2.1,0.8H15.5c-0.8,0-1.5-0.3-2.1-0.8
		c-0.5-0.5-0.8-1.2-0.8-2.1V18.3c0-0.8,0.3-1.5,0.8-2.1c0.5-0.5,1.2-0.8,2.1-0.8h35.4c0.8,0,1.5,0.3,2.1,0.8
		c0.5,0.5,0.8,1.2,0.8,2.1c0,0.8-0.3,1.5-0.8,2c-0.5,0.5-1.2,0.8-2.1,0.8H18.6v24.2h27.9c0.8,0,1.5,0.3,2.1,0.8
		c0.5,0.5,0.8,1.2,0.8,2.1c0,0.8-0.3,1.5-0.8,2C48,50.7,47.3,51,46.5,51H18.6v26.2h32.2C51.7,77.2,52.4,77.5,52.9,78.1z"/>
	<path class="st4" d="M103.5,33.4c0.6,0.5,0.9,1,0.9,1.7c0,0.6-0.1,1.1-0.4,1.6L85.1,81.1c-0.3,0.5-0.6,0.9-1.1,1.3
		c-0.5,0.4-1,0.5-1.5,0.5c-0.6,0.1-1.2-0.1-1.7-0.4c-0.5-0.3-0.9-0.8-1.2-1.4l-19-44.4c0-0.1,0-0.3-0.1-0.6
		c-0.1-0.3-0.1-0.5-0.1-0.8c0-0.8,0.3-1.4,0.8-2c0.5-0.5,1.3-0.8,2.2-0.8c0.6,0,1.1,0.2,1.6,0.5c0.5,0.4,0.9,0.8,1.1,1.4l16.4,39.1
		l16.5-39.1c0.3-0.6,0.6-1,1.1-1.4c0.5-0.4,1-0.5,1.7-0.4C102.3,32.7,102.9,32.9,103.5,33.4z"/>
	<path class="st4" d="M155.8,57.4c-0.6,0.5-1.3,0.8-2,0.8h-36.5c0,3.9,0.8,7.3,2.4,10.4c1.6,3.1,3.8,5.5,6.8,7.2
		c2.9,1.8,6.4,2.7,10.4,2.7c3.1,0,5.8-0.6,8.3-1.9c2.4-1.3,4.4-2.9,5.9-4.9c0.7-0.6,1.4-0.9,2-0.9c0.6,0,1.2,0.3,1.7,0.8
		c0.5,0.5,0.8,1.1,0.8,1.7c0,0.7-0.3,1.4-1,2c-2.1,2.5-4.6,4.6-7.8,6.2s-6.4,2.4-9.9,2.4c-5,0-9.3-1.1-13.1-3.2
		c-3.8-2.1-6.8-5.1-8.9-8.9c-2.1-3.8-3.2-8.2-3.2-13.3c0-5.3,1-9.9,3.1-13.8c2.1-4,4.9-7,8.3-9.1c3.5-2.1,7.2-3.1,11.1-3.1
		c3.9,0,7.5,0.9,10.8,2.7c3.4,1.8,6.1,4.4,8.2,7.9c2.1,3.5,3.2,7.6,3.3,12.3C156.6,56.2,156.3,56.9,155.8,57.4z M123.9,41.9
		c-3.2,2.6-5.2,6.3-6.1,11.1h32.9v-0.8c-0.3-2.9-1.3-5.4-2.9-7.6c-1.6-2.2-3.6-3.8-6-4.9c-2.4-1.1-4.9-1.7-7.5-1.7
		C130.5,38.1,127.1,39.4,123.9,41.9z"/>
	<path class="st4" d="M195.1,33.3c1,0.5,1.5,1.3,1.5,2.3c0,0.9-0.3,1.6-0.8,2.2c-0.5,0.5-1.1,0.8-1.8,0.8c-0.3,0-0.9-0.2-1.9-0.5
		c-0.9-0.3-1.8-0.5-2.7-0.5c-2.4,0-4.7,0.9-7.1,2.7c-2.3,1.8-4.3,4.2-5.8,7.1c-1.5,2.9-2.3,5.8-2.3,8.8V80c0,0.8-0.3,1.5-0.8,2.1
		c-0.5,0.5-1.2,0.8-2.1,0.8c-0.8,0-1.5-0.3-2.1-0.8c-0.5-0.5-0.8-1.2-0.8-2.1V36.8c0-0.8,0.3-1.5,0.8-2.1c0.5-0.5,1.2-0.8,2.1-0.8
		c0.8,0,1.5,0.3,2.1,0.8c0.5,0.5,0.8,1.2,0.8,2.1v8.5c1.5-3.7,3.7-6.7,6.7-9.1c3-2.4,6.5-3.6,10.6-3.7
		C192.9,32.5,194.1,32.7,195.1,33.3z"/>
	<path class="st4" d="M244.5,33.6c0.5,0.5,0.8,1.2,0.8,2.1v42.5c0,5.1-1,9.4-3,13c-2,3.6-4.8,6.3-8.3,8.2c-3.5,1.9-7.5,2.8-12,2.8
		c-2.7,0-5.2-0.3-7.6-0.9c-2.3-0.6-4.3-1.4-5.8-2.3c-1.3-0.8-2-1.8-2-2.8c0-0.1,0.1-0.5,0.2-1c0.2-0.6,0.5-1.1,1-1.4
		c0.4-0.3,0.9-0.5,1.4-0.5c0.4,0,0.8,0.1,1.2,0.3c4.1,2.3,8,3.4,11.8,3.4c5.3,0,9.6-1.7,12.7-5c3.1-3.3,4.7-7.9,4.7-13.7v-3.4
		c-1.6,2.7-3.9,4.9-6.9,6.5c-3,1.6-6.3,2.5-9.8,2.5c-5.6,0-9.8-1.7-12.7-5c-2.9-3.3-4.3-7.9-4.3-13.6V35.7c0-0.8,0.3-1.5,0.8-2.1
		c0.5-0.5,1.2-0.8,2.1-0.8c0.8,0,1.5,0.3,2.1,0.8c0.5,0.5,0.8,1.2,0.8,2.1v28.7c0,4.6,1,8.1,3,10.5c2,2.4,5.2,3.6,9.5,3.6
		c2.6,0,5.2-0.7,7.6-2c2.4-1.3,4.3-3.1,5.8-5.2c1.4-2.2,2.2-4.5,2.2-6.9V35.7c0-0.8,0.3-1.5,0.8-2.1c0.5-0.5,1.2-0.8,2.1-0.8
		C243.3,32.8,244,33,244.5,33.6z"/>
	<path class="st4" d="M270.1,39.2v32.3c0,2.4,0.4,4.1,1.3,5c0.9,0.9,2.1,1.3,3.6,1.3c0.4,0,0.9-0.1,1.4-0.2c0.6-0.2,1-0.2,1.4-0.2
		c0.6,0,1.1,0.2,1.5,0.7c0.4,0.5,0.6,1,0.6,1.7c0,0.9-0.5,1.7-1.5,2.3c-1,0.6-2.3,0.9-3.7,0.9c-1.7,0-3.3-0.2-4.6-0.5
		c-1.4-0.3-2.7-1.3-3.9-2.9c-1.3-1.6-1.9-4.2-1.9-7.7V39.2h-7c-0.8,0-1.4-0.3-2-0.8c-0.5-0.5-0.8-1.2-0.8-1.9s0.3-1.4,0.8-1.9
		c0.5-0.5,1.2-0.8,2-0.8h7V23.1c0-0.8,0.3-1.5,0.8-2.1c0.5-0.5,1.2-0.8,2.1-0.8c0.8,0,1.5,0.3,2.1,0.8c0.5,0.5,0.8,1.2,0.8,2.1v10.7
		h9.6c0.7,0,1.3,0.3,1.9,0.9c0.5,0.6,0.8,1.2,0.8,1.9c0,0.8-0.3,1.4-0.8,1.9c-0.5,0.5-1.2,0.7-1.9,0.7H270.1z"/>
	<path class="st4" d="M328.6,38.7c2.8,3.6,4.2,8.3,4.2,14V80c0,0.8-0.3,1.5-0.8,2.1c-0.5,0.5-1.2,0.8-2.1,0.8
		c-0.8,0-1.5-0.3-2.1-0.8c-0.5-0.5-0.8-1.2-0.8-2.1V52.7c0-4.2-1-7.6-3-10.2c-2-2.6-5.1-3.9-9.4-3.9c-2.7,0-5.3,0.6-7.7,1.9
		c-2.4,1.3-4.4,3-5.8,5.2c-1.5,2.2-2.2,4.5-2.2,7V80c0,0.8-0.3,1.5-0.8,2.1c-0.5,0.5-1.2,0.8-2.1,0.8c-0.8,0-1.5-0.3-2.1-0.8
		c-0.5-0.5-0.8-1.2-0.8-2.1V14.5c0-0.8,0.3-1.5,0.8-2.1c0.5-0.5,1.2-0.8,2.1-0.8c0.8,0,1.5,0.3,2.1,0.8c0.5,0.5,0.8,1.2,0.8,2.1
		v28.3c1.7-2.8,4.1-5,7.2-6.8c3.1-1.8,6.2-2.7,9.5-2.7C321.4,33.3,325.7,35.1,328.6,38.7z"/>
	<path class="st4" d="M347.7,25.4c-0.7-0.6-1.1-1.5-1.1-2.7v-1c0-1.2,0.4-2,1.1-2.7c0.7-0.6,1.8-0.9,3-0.9c2.6,0,3.9,1.2,3.9,3.6v1
		c0,1.2-0.3,2-1,2.7c-0.7,0.6-1.7,0.9-2.9,0.9C349.4,26.3,348.4,26,347.7,25.4z M352.7,82.1c-0.5,0.5-1.2,0.8-2.1,0.8
		c-0.8,0-1.5-0.3-2.1-0.8c-0.5-0.5-0.8-1.2-0.8-2.1V35.7c0-0.8,0.3-1.5,0.8-2.1c0.5-0.5,1.2-0.8,2.1-0.8c0.8,0,1.5,0.3,2.1,0.8
		c0.5,0.5,0.8,1.2,0.8,2.1V80C353.5,80.9,353.3,81.6,352.7,82.1z"/>
	<path class="st4" d="M405,37.7c2.8,3.5,4.2,8.1,4.2,13.9V80c0,0.8-0.3,1.5-0.9,2.1c-0.6,0.5-1.3,0.8-2,0.8c-0.8,0-1.5-0.3-2.1-0.8
		c-0.5-0.5-0.8-1.2-0.8-2.1V52c0-4.2-1-7.6-3.1-10.2c-2.1-2.6-5.3-3.9-9.7-3.9c-2.8,0-5.4,0.6-7.9,1.9c-2.5,1.3-4.5,3-6,5.2
		c-1.5,2.2-2.3,4.5-2.3,7V80c0,0.8-0.3,1.5-0.8,2.1c-0.5,0.5-1.2,0.8-2.1,0.8c-0.8,0-1.5-0.3-2.1-0.8c-0.5-0.5-0.8-1.2-0.8-2.1V36.8
		c0-0.8,0.3-1.5,0.8-2.1c0.5-0.5,1.2-0.8,2.1-0.8c0.8,0,1.5,0.3,2.1,0.8c0.5,0.5,0.8,1.2,0.8,2.1v5.3c1.7-2.8,4.2-5.1,7.5-6.9
		c3.2-1.8,6.6-2.7,10-2.7C397.8,32.5,402.2,34.2,405,37.7z"/>
	<path class="st4" d="M468.1,34.5c0.5,0.5,0.8,1.3,0.8,2.2v41.8c0,5-1,9.3-3.1,12.9c-2.1,3.6-5,6.3-8.6,8.1
		c-3.6,1.9-7.8,2.8-12.5,2.8c-2.3,0-4.6-0.3-7.1-0.9c-2.5-0.6-4.6-1.3-6.4-2.2c-1.8-0.9-2.8-1.8-3-2.8c-0.5-0.5-0.7-1-0.7-1.5
		c0-0.6,0.3-1.2,0.9-1.5c0.3-0.2,0.6-0.3,1-0.3s1.1,0.2,2.2,0.7l2,0.9c4,1.5,7.7,2.3,11.2,2.3c5.7,0,10.2-1.6,13.5-4.9
		c3.2-3.2,4.9-7.6,4.9-13.2v-6c-1.6,3.5-4.1,6.2-7.6,8.1c-3.5,2-7.1,2.9-10.9,2.9c-4.4,0-8.4-1.1-12-3.3c-3.6-2.2-6.4-5.3-8.4-9.2
		c-2.1-3.9-3.1-8.3-3.1-13.2c0-4.8,1-9.2,3.1-13.1c2.1-3.9,4.9-7,8.4-9.2s7.5-3.3,11.9-3.3c4.1,0,7.8,1,11.1,3
		c3.4,2,5.9,4.5,7.5,7.3v-6.2c0-0.8,0.3-1.5,0.8-2.1c0.5-0.6,1.2-0.9,2.1-0.9C466.8,33.6,467.5,33.9,468.1,34.5z M454.6,75.9
		c2.8-1.7,5-4.1,6.6-7.2c1.6-3.1,2.4-6.6,2.4-10.6c0-3.9-0.8-7.4-2.4-10.5c-1.6-3.1-3.8-5.5-6.6-7.2c-2.8-1.7-6-2.6-9.5-2.6
		c-3.5,0-6.6,0.9-9.4,2.7c-2.8,1.8-5,4.2-6.6,7.3c-1.6,3.1-2.4,6.5-2.4,10.3c0,3.9,0.8,7.3,2.4,10.4c1.6,3.1,3.8,5.5,6.6,7.3
		c2.8,1.8,5.9,2.7,9.4,2.7C448.6,78.5,451.8,77.6,454.6,75.9z"/>
</g>
<g>
	<path class="st3" d="M72.9,118.8c0.1,0.1,0.2,0.3,0.2,0.4v8.7c0,0.2-0.1,0.3-0.2,0.4s-0.2,0.2-0.4,0.2s-0.3-0.1-0.4-0.2
		c-0.1-0.1-0.2-0.2-0.2-0.4v-1.3c-0.3,0.6-0.8,1.1-1.4,1.5c-0.6,0.4-1.3,0.6-2.1,0.6c-0.9,0-1.6-0.2-2.3-0.7
		c-0.7-0.4-1.2-1.1-1.6-1.9c-0.4-0.8-0.6-1.7-0.6-2.6c0-1,0.2-1.9,0.6-2.6s0.9-1.4,1.6-1.8c0.7-0.4,1.4-0.7,2.3-0.7
		c0.8,0,1.5,0.2,2.1,0.6c0.6,0.4,1.1,0.9,1.4,1.5v-1.2c0-0.2,0.1-0.3,0.2-0.4c0.1-0.1,0.2-0.2,0.4-0.2S72.8,118.7,72.9,118.8z
		 M70.3,127c0.5-0.4,1-0.8,1.3-1.5c0.3-0.6,0.5-1.3,0.5-2.1c0-0.7-0.2-1.4-0.5-2c-0.3-0.6-0.7-1.1-1.3-1.5c-0.5-0.4-1.1-0.5-1.8-0.5
		c-0.7,0-1.3,0.2-1.8,0.5c-0.5,0.3-1,0.8-1.3,1.4c-0.3,0.6-0.5,1.3-0.5,2.1s0.1,1.5,0.4,2.1c0.3,0.6,0.7,1.1,1.2,1.5
		c0.5,0.4,1.1,0.5,1.8,0.5C69.2,127.6,69.8,127.4,70.3,127z"/>
	<path class="st3" d="M88.4,119.2c0.7,0.4,1.2,1,1.6,1.8c0.4,0.8,0.6,1.6,0.6,2.6c0,1-0.2,1.8-0.6,2.6c-0.4,0.8-0.9,1.4-1.6,1.8
		s-1.5,0.7-2.3,0.7c-0.7,0-1.4-0.2-2.1-0.5c-0.6-0.4-1.1-0.8-1.5-1.4v5.1c0,0.2-0.1,0.3-0.2,0.4s-0.2,0.2-0.4,0.2
		c-0.2,0-0.3-0.1-0.4-0.2s-0.2-0.2-0.2-0.4v-12.6c0-0.2,0.1-0.3,0.2-0.4c0.1-0.1,0.2-0.2,0.4-0.2c0.2,0,0.3,0.1,0.4,0.2
		c0.1,0.1,0.2,0.3,0.2,0.4v1.3c0.3-0.6,0.8-1.1,1.4-1.4c0.6-0.3,1.3-0.5,2.1-0.5C86.9,118.5,87.7,118.7,88.4,119.2z M87.8,127
		c0.5-0.3,1-0.8,1.3-1.4c0.3-0.6,0.5-1.3,0.5-2c0-0.7-0.2-1.4-0.5-2c-0.3-0.6-0.7-1.1-1.3-1.4c-0.5-0.3-1.1-0.5-1.8-0.5
		c-0.7,0-1.3,0.2-1.8,0.5c-0.5,0.3-1,0.8-1.3,1.4c-0.3,0.6-0.4,1.3-0.4,2s0.1,1.4,0.4,2c0.3,0.6,0.7,1.1,1.3,1.4s1.2,0.5,1.8,0.5
		C86.6,127.5,87.2,127.3,87.8,127z"/>
	<path class="st3" d="M100.8,118.8c0.1,0.1,0.2,0.2,0.2,0.4v5.4c0,1.3-0.4,2.2-1.1,2.9c-0.7,0.7-1.7,1-2.9,1c-1.2,0-2.2-0.3-2.9-1
		c-0.7-0.7-1.1-1.6-1.1-2.9v-5.4c0-0.2,0.1-0.3,0.2-0.4s0.2-0.2,0.4-0.2c0.2,0,0.3,0.1,0.4,0.2s0.2,0.2,0.2,0.4v5.4
		c0,0.9,0.2,1.6,0.7,2.1c0.5,0.5,1.2,0.7,2.1,0.7c0.9,0,1.6-0.2,2.1-0.7c0.5-0.5,0.7-1.2,0.7-2.1v-5.4c0-0.2,0.1-0.3,0.2-0.4
		s0.2-0.2,0.4-0.2C100.5,118.7,100.7,118.7,100.8,118.8z"/>
	<path class="st3" d="M111,119c0.7,0.4,1.2,1,1.6,1.8s0.6,1.7,0.6,2.6c0,1-0.2,1.8-0.6,2.6c-0.4,0.8-0.9,1.4-1.6,1.9
		c-0.7,0.5-1.5,0.7-2.3,0.7c-0.7,0-1.4-0.2-2-0.5c-0.6-0.4-1.1-0.9-1.5-1.5v1.3c0,0.2-0.1,0.3-0.2,0.4c-0.1,0.1-0.2,0.2-0.4,0.2
		c-0.2,0-0.3-0.1-0.4-0.2c-0.1-0.1-0.2-0.3-0.2-0.4v-13.1c0-0.2,0.1-0.3,0.2-0.4s0.2-0.2,0.4-0.2c0.2,0,0.3,0.1,0.4,0.2
		s0.2,0.2,0.2,0.4v5.7c0.3-0.6,0.8-1.1,1.5-1.5s1.3-0.6,2.1-0.6C109.5,118.4,110.3,118.6,111,119z M110.3,127c0.5-0.4,1-0.9,1.3-1.5
		c0.3-0.6,0.5-1.3,0.5-2.1c0-0.8-0.2-1.5-0.5-2.1c-0.3-0.6-0.7-1.1-1.3-1.4c-0.5-0.3-1.1-0.5-1.8-0.5c-0.7,0-1.3,0.2-1.8,0.5
		c-0.5,0.3-1,0.8-1.3,1.4c-0.3,0.6-0.4,1.3-0.4,2.1s0.2,1.5,0.5,2.1c0.3,0.6,0.7,1.1,1.3,1.5c0.5,0.4,1.1,0.5,1.8,0.5
		C109.2,127.6,109.8,127.4,110.3,127z"/>
	<path class="st3" d="M116.7,128.3c-0.1,0.1-0.2,0.2-0.4,0.2s-0.3-0.1-0.4-0.2c-0.1-0.1-0.2-0.2-0.2-0.4v-13.1
		c0-0.2,0.1-0.3,0.2-0.4c0.1-0.1,0.2-0.2,0.4-0.2s0.3,0.1,0.4,0.2s0.2,0.2,0.2,0.4v13.1C116.8,128.1,116.8,128.2,116.7,128.3z"/>
	<path class="st3" d="M119.9,117c-0.1-0.1-0.2-0.3-0.2-0.5v-0.2c0-0.2,0.1-0.4,0.2-0.5c0.1-0.1,0.3-0.2,0.6-0.2
		c0.5,0,0.8,0.2,0.8,0.7v0.2c0,0.2-0.1,0.4-0.2,0.5c-0.1,0.1-0.3,0.2-0.6,0.2S120.1,117.1,119.9,117z M121,128.3
		c-0.1,0.1-0.2,0.2-0.4,0.2s-0.3-0.1-0.4-0.2c-0.1-0.1-0.2-0.2-0.2-0.4V119c0-0.2,0.1-0.3,0.2-0.4c0.1-0.1,0.2-0.2,0.4-0.2
		s0.3,0.1,0.4,0.2s0.2,0.2,0.2,0.4v8.9C121.1,128.1,121.1,128.2,121,128.3z"/>
	<path class="st3" d="M130.1,118.6c0.5,0.1,0.9,0.3,1.3,0.5c0.3,0.2,0.5,0.5,0.5,0.8c0,0.1,0,0.3-0.1,0.4c-0.1,0.1-0.2,0.2-0.4,0.2
		c-0.1,0-0.2,0-0.3-0.1c-0.1-0.1-0.2-0.1-0.3-0.2c-0.2-0.2-0.3-0.3-0.5-0.4c-0.2-0.1-0.4-0.2-0.8-0.2c-0.3-0.1-0.7-0.1-1-0.1
		c-0.7,0-1.4,0.2-1.9,0.5s-1,0.8-1.4,1.5s-0.5,1.3-0.5,2c0,0.8,0.2,1.5,0.5,2.1s0.8,1.1,1.3,1.5c0.6,0.4,1.2,0.5,2,0.5
		c0.5,0,0.8,0,1.1-0.1s0.5-0.2,0.8-0.3c0.1-0.1,0.2-0.2,0.5-0.3c0.1-0.1,0.2-0.2,0.3-0.2c0.1,0,0.2-0.1,0.3-0.1c0.2,0,0.3,0,0.4,0.1
		c0.1,0.1,0.1,0.2,0.1,0.4c0,0.2-0.2,0.5-0.5,0.7c-0.3,0.3-0.7,0.5-1.3,0.6s-1.1,0.3-1.8,0.3c-0.9,0-1.8-0.2-2.5-0.7
		c-0.7-0.4-1.3-1.1-1.7-1.8s-0.6-1.7-0.6-2.6c0-0.9,0.2-1.8,0.6-2.6c0.4-0.8,1-1.4,1.7-1.9s1.6-0.7,2.6-0.7
		C129,118.4,129.6,118.4,130.1,118.6z"/>
	<path class="st3" d="M141.8,115.7c-0.2,0.3-0.3,0.6-0.3,1.1v2h2.2c0.1,0,0.3,0.1,0.4,0.2c0.1,0.1,0.2,0.2,0.2,0.4s-0.1,0.3-0.2,0.4
		c-0.1,0.1-0.2,0.2-0.4,0.2h-2.2v8c0,0.2-0.1,0.3-0.2,0.4c-0.1,0.1-0.2,0.2-0.4,0.2s-0.3-0.1-0.4-0.2s-0.2-0.2-0.2-0.4v-8h-1.4
		c-0.2,0-0.3-0.1-0.4-0.2c-0.1-0.1-0.2-0.2-0.2-0.4c0-0.2,0.1-0.3,0.2-0.4c0.1-0.1,0.2-0.1,0.4-0.1h1.4v-2c0-0.8,0.2-1.4,0.7-1.9
		c0.5-0.4,1.1-0.7,1.9-0.7c0.4,0,0.7,0.1,1,0.2s0.5,0.3,0.5,0.5c0,0.2-0.1,0.3-0.2,0.4c-0.1,0.1-0.2,0.2-0.3,0.2
		c-0.1,0-0.3,0-0.4-0.1c-0.3-0.1-0.5-0.1-0.7-0.1C142.3,115.3,142,115.4,141.8,115.7z"/>
	<path class="st3" d="M154.5,118.8c0.1,0.1,0.2,0.3,0.2,0.4v8.7c0,0.2-0.1,0.3-0.2,0.4s-0.2,0.2-0.4,0.2s-0.3-0.1-0.4-0.2
		c-0.1-0.1-0.2-0.2-0.2-0.4v-1.3c-0.3,0.6-0.8,1.1-1.4,1.5c-0.6,0.4-1.3,0.6-2.1,0.6c-0.9,0-1.6-0.2-2.3-0.7
		c-0.7-0.4-1.2-1.1-1.6-1.9c-0.4-0.8-0.6-1.7-0.6-2.6c0-1,0.2-1.9,0.6-2.6s0.9-1.4,1.6-1.8c0.7-0.4,1.4-0.7,2.3-0.7
		c0.8,0,1.5,0.2,2.1,0.6c0.6,0.4,1.1,0.9,1.4,1.5v-1.2c0-0.2,0.1-0.3,0.2-0.4c0.1-0.1,0.2-0.2,0.4-0.2S154.4,118.7,154.5,118.8z
		 M151.9,127c0.5-0.4,1-0.8,1.3-1.5c0.3-0.6,0.5-1.3,0.5-2.1c0-0.7-0.2-1.4-0.5-2c-0.3-0.6-0.7-1.1-1.3-1.5
		c-0.5-0.4-1.1-0.5-1.8-0.5c-0.7,0-1.3,0.2-1.8,0.5c-0.5,0.3-1,0.8-1.3,1.4c-0.3,0.6-0.5,1.3-0.5,2.1s0.1,1.5,0.4,2.1
		c0.3,0.6,0.7,1.1,1.2,1.5c0.5,0.4,1.1,0.5,1.8,0.5C150.8,127.6,151.4,127.4,151.9,127z"/>
	<path class="st3" d="M163.7,118.6c0.5,0.1,0.9,0.3,1.3,0.5c0.3,0.2,0.5,0.5,0.5,0.8c0,0.1,0,0.3-0.1,0.4c-0.1,0.1-0.2,0.2-0.4,0.2
		c-0.1,0-0.2,0-0.3-0.1c-0.1-0.1-0.2-0.1-0.3-0.2c-0.2-0.2-0.3-0.3-0.5-0.4c-0.2-0.1-0.4-0.2-0.8-0.2c-0.3-0.1-0.7-0.1-1-0.1
		c-0.7,0-1.4,0.2-1.9,0.5s-1,0.8-1.4,1.5s-0.5,1.3-0.5,2c0,0.8,0.2,1.5,0.5,2.1s0.8,1.1,1.3,1.5c0.6,0.4,1.2,0.5,2,0.5
		c0.5,0,0.8,0,1.1-0.1s0.5-0.2,0.8-0.3c0.1-0.1,0.2-0.2,0.5-0.3c0.1-0.1,0.2-0.2,0.3-0.2c0.1,0,0.2-0.1,0.3-0.1c0.2,0,0.3,0,0.4,0.1
		c0.1,0.1,0.1,0.2,0.1,0.4c0,0.2-0.2,0.5-0.5,0.7c-0.3,0.3-0.7,0.5-1.3,0.6s-1.1,0.3-1.8,0.3c-0.9,0-1.8-0.2-2.5-0.7
		c-0.7-0.4-1.3-1.1-1.7-1.8s-0.6-1.7-0.6-2.6c0-0.9,0.2-1.8,0.6-2.6c0.4-0.8,1-1.4,1.7-1.9s1.6-0.7,2.6-0.7
		C162.6,118.4,163.2,118.4,163.7,118.6z"/>
	<path class="st3" d="M167.6,117c-0.1-0.1-0.2-0.3-0.2-0.5v-0.2c0-0.2,0.1-0.4,0.2-0.5c0.1-0.1,0.3-0.2,0.6-0.2
		c0.5,0,0.8,0.2,0.8,0.7v0.2c0,0.2-0.1,0.4-0.2,0.5c-0.1,0.1-0.3,0.2-0.6,0.2S167.7,117.1,167.6,117z M168.6,128.3
		c-0.1,0.1-0.2,0.2-0.4,0.2s-0.3-0.1-0.4-0.2c-0.1-0.1-0.2-0.2-0.2-0.4V119c0-0.2,0.1-0.3,0.2-0.4c0.1-0.1,0.2-0.2,0.4-0.2
		s0.3,0.1,0.4,0.2s0.2,0.2,0.2,0.4v8.9C168.8,128.1,168.7,128.2,168.6,128.3z"/>
	<path class="st3" d="M172.9,128.3c-0.1,0.1-0.2,0.2-0.4,0.2s-0.3-0.1-0.4-0.2c-0.1-0.1-0.2-0.2-0.2-0.4v-13.1
		c0-0.2,0.1-0.3,0.2-0.4c0.1-0.1,0.2-0.2,0.4-0.2s0.3,0.1,0.4,0.2s0.2,0.2,0.2,0.4v13.1C173,128.1,173,128.2,172.9,128.3z"/>
	<path class="st3" d="M176.1,117c-0.1-0.1-0.2-0.3-0.2-0.5v-0.2c0-0.2,0.1-0.4,0.2-0.5c0.1-0.1,0.3-0.2,0.6-0.2
		c0.5,0,0.8,0.2,0.8,0.7v0.2c0,0.2-0.1,0.4-0.2,0.5c-0.1,0.1-0.3,0.2-0.6,0.2S176.3,117.1,176.1,117z M177.2,128.3
		c-0.1,0.1-0.2,0.2-0.4,0.2s-0.3-0.1-0.4-0.2c-0.1-0.1-0.2-0.2-0.2-0.4V119c0-0.2,0.1-0.3,0.2-0.4c0.1-0.1,0.2-0.2,0.4-0.2
		s0.3,0.1,0.4,0.2s0.2,0.2,0.2,0.4v8.9C177.3,128.1,177.3,128.2,177.2,128.3z"/>
	<path class="st3" d="M182.3,119.7v6.5c0,0.5,0.1,0.8,0.3,1c0.2,0.2,0.4,0.3,0.7,0.3c0.1,0,0.2,0,0.3,0c0.1,0,0.2,0,0.3,0
		c0.1,0,0.2,0,0.3,0.1c0.1,0.1,0.1,0.2,0.1,0.3c0,0.2-0.1,0.3-0.3,0.5c-0.2,0.1-0.5,0.2-0.7,0.2c-0.3,0-0.7,0-0.9-0.1
		c-0.3-0.1-0.5-0.3-0.8-0.6c-0.3-0.3-0.4-0.8-0.4-1.5v-6.5h-1.4c-0.2,0-0.3-0.1-0.4-0.2c-0.1-0.1-0.2-0.2-0.2-0.4s0.1-0.3,0.2-0.4
		c0.1-0.1,0.2-0.2,0.4-0.2h1.4v-2.1c0-0.2,0.1-0.3,0.2-0.4s0.2-0.2,0.4-0.2c0.2,0,0.3,0.1,0.4,0.2s0.2,0.2,0.2,0.4v2.1h1.9
		c0.1,0,0.3,0.1,0.4,0.2c0.1,0.1,0.2,0.2,0.2,0.4c0,0.2-0.1,0.3-0.2,0.4c-0.1,0.1-0.2,0.1-0.4,0.1H182.3z"/>
	<path class="st3" d="M186.8,117c-0.1-0.1-0.2-0.3-0.2-0.5v-0.2c0-0.2,0.1-0.4,0.2-0.5c0.1-0.1,0.3-0.2,0.6-0.2
		c0.5,0,0.8,0.2,0.8,0.7v0.2c0,0.2-0.1,0.4-0.2,0.5c-0.1,0.1-0.3,0.2-0.6,0.2S186.9,117.1,186.8,117z M187.8,128.3
		c-0.1,0.1-0.2,0.2-0.4,0.2s-0.3-0.1-0.4-0.2c-0.1-0.1-0.2-0.2-0.2-0.4V119c0-0.2,0.1-0.3,0.2-0.4c0.1-0.1,0.2-0.2,0.4-0.2
		s0.3,0.1,0.4,0.2s0.2,0.2,0.2,0.4v8.9C188,128.1,187.9,128.2,187.8,128.3z"/>
	<path class="st3" d="M199.2,123.4c-0.1,0.1-0.3,0.2-0.4,0.2h-7.3c0,0.8,0.2,1.5,0.5,2.1c0.3,0.6,0.8,1.1,1.4,1.4
		c0.6,0.4,1.3,0.5,2.1,0.5c0.6,0,1.2-0.1,1.7-0.4c0.5-0.3,0.9-0.6,1.2-1c0.1-0.1,0.3-0.2,0.4-0.2c0.1,0,0.2,0.1,0.3,0.2
		c0.1,0.1,0.2,0.2,0.2,0.3c0,0.1-0.1,0.3-0.2,0.4c-0.4,0.5-0.9,0.9-1.6,1.2c-0.6,0.3-1.3,0.5-2,0.5c-1,0-1.9-0.2-2.6-0.6
		c-0.8-0.4-1.3-1-1.8-1.8c-0.4-0.8-0.6-1.6-0.6-2.7c0-1.1,0.2-2,0.6-2.8c0.4-0.8,1-1.4,1.7-1.8s1.4-0.6,2.2-0.6
		c0.8,0,1.5,0.2,2.2,0.5c0.7,0.4,1.2,0.9,1.6,1.6c0.4,0.7,0.6,1.5,0.7,2.5C199.3,123.1,199.3,123.3,199.2,123.4z M192.8,120.3
		c-0.6,0.5-1,1.3-1.2,2.2h6.6v-0.2c-0.1-0.6-0.3-1.1-0.6-1.5c-0.3-0.4-0.7-0.8-1.2-1c-0.5-0.2-1-0.3-1.5-0.3
		C194.1,119.5,193.4,119.8,192.8,120.3z"/>
	<path class="st3" d="M201,126.5c0-0.2,0.1-0.3,0.3-0.4c0.1-0.1,0.2-0.1,0.3-0.1c0.2,0,0.3,0.1,0.4,0.2c0.8,1,1.8,1.5,3,1.5
		c0.6,0,1.2-0.1,1.6-0.4c0.5-0.3,0.7-0.7,0.7-1.3c0-0.5-0.2-0.9-0.6-1.2c-0.4-0.3-1-0.5-1.8-0.7c-1.1-0.3-1.9-0.6-2.5-1.1
		s-0.9-1.1-0.9-1.9c0-0.5,0.1-1,0.4-1.4s0.7-0.7,1.2-1s1.1-0.3,1.7-0.3c0.6,0,1.1,0.1,1.7,0.3c0.6,0.2,1,0.5,1.4,1
		c0.1,0.1,0.2,0.2,0.2,0.4c0,0.2-0.1,0.3-0.2,0.4c-0.1,0.1-0.2,0.1-0.3,0.1c-0.1,0-0.2-0.1-0.3-0.2c-0.3-0.3-0.7-0.6-1.1-0.8
		c-0.4-0.2-0.9-0.3-1.4-0.3c-0.6,0-1.1,0.1-1.6,0.4c-0.4,0.3-0.6,0.7-0.6,1.3c0,0.5,0.3,0.9,0.7,1.2c0.4,0.3,1.1,0.5,2,0.7
		c0.7,0.2,1.2,0.4,1.7,0.6c0.4,0.2,0.8,0.5,1.1,0.9c0.3,0.4,0.4,0.9,0.4,1.5c0,0.8-0.3,1.5-1,2c-0.7,0.5-1.5,0.7-2.5,0.7
		c-1.6,0-2.8-0.6-3.7-1.8C201.1,126.7,201,126.6,201,126.5z"/>
	<path class="st3" d="M229.8,119.6c0.5,0.7,0.8,1.7,0.8,2.8v5.5c0,0.2-0.1,0.3-0.2,0.4s-0.2,0.2-0.4,0.2c-0.2,0-0.3-0.1-0.4-0.2
		s-0.2-0.2-0.2-0.4v-5.4c0-0.8-0.2-1.5-0.6-2.1c-0.4-0.5-1-0.8-1.9-0.8c-0.5,0-1.1,0.1-1.5,0.4c-0.5,0.3-0.9,0.6-1.2,1.1
		c-0.3,0.4-0.4,0.9-0.4,1.4v5.4c0,0.2-0.1,0.3-0.2,0.4s-0.2,0.2-0.4,0.2s-0.3-0.1-0.4-0.2s-0.2-0.2-0.2-0.4v-5.5
		c0-0.8-0.2-1.5-0.6-2s-1-0.8-1.8-0.8c-0.5,0-1,0.1-1.5,0.4c-0.5,0.3-0.8,0.6-1.1,1c-0.3,0.4-0.4,0.9-0.4,1.4v5.5
		c0,0.2-0.1,0.3-0.2,0.4s-0.2,0.2-0.4,0.2c-0.2,0-0.3-0.1-0.4-0.2s-0.2-0.2-0.2-0.4v-8.6c0-0.2,0.1-0.3,0.2-0.4s0.2-0.2,0.4-0.2
		c0.2,0,0.3,0.1,0.4,0.2s0.2,0.2,0.2,0.4v1.1c0.3-0.5,0.8-1,1.4-1.3c0.6-0.3,1.2-0.5,1.9-0.5c0.7,0,1.4,0.2,1.9,0.5
		c0.5,0.4,0.9,0.9,1.2,1.6c0.3-0.6,0.8-1.1,1.5-1.5c0.7-0.4,1.4-0.6,2.2-0.6C228.4,118.5,229.2,118.9,229.8,119.6z"/>
	<path class="st3" d="M242,118.8c0.1,0.1,0.2,0.3,0.2,0.4v8.7c0,0.2-0.1,0.3-0.2,0.4s-0.2,0.2-0.4,0.2s-0.3-0.1-0.4-0.2
		c-0.1-0.1-0.2-0.2-0.2-0.4v-1.3c-0.3,0.6-0.8,1.1-1.4,1.5c-0.6,0.4-1.3,0.6-2.1,0.6c-0.9,0-1.6-0.2-2.3-0.7
		c-0.7-0.4-1.2-1.1-1.6-1.9c-0.4-0.8-0.6-1.7-0.6-2.6c0-1,0.2-1.9,0.6-2.6s0.9-1.4,1.6-1.8c0.7-0.4,1.4-0.7,2.3-0.7
		c0.8,0,1.5,0.2,2.1,0.6c0.6,0.4,1.1,0.9,1.4,1.5v-1.2c0-0.2,0.1-0.3,0.2-0.4c0.1-0.1,0.2-0.2,0.4-0.2S241.9,118.7,242,118.8z
		 M239.4,127c0.5-0.4,1-0.8,1.3-1.5c0.3-0.6,0.5-1.3,0.5-2.1c0-0.7-0.2-1.4-0.5-2c-0.3-0.6-0.7-1.1-1.3-1.5
		c-0.5-0.4-1.1-0.5-1.8-0.5c-0.7,0-1.3,0.2-1.8,0.5c-0.5,0.3-1,0.8-1.3,1.4c-0.3,0.6-0.5,1.3-0.5,2.1s0.1,1.5,0.4,2.1
		c0.3,0.6,0.7,1.1,1.2,1.5c0.5,0.4,1.1,0.5,1.8,0.5C238.3,127.6,238.9,127.4,239.4,127z"/>
	<path class="st3" d="M252.5,119.4c0.6,0.7,0.8,1.6,0.8,2.8v5.7c0,0.2-0.1,0.3-0.2,0.4c-0.1,0.1-0.3,0.2-0.4,0.2
		c-0.2,0-0.3-0.1-0.4-0.2c-0.1-0.1-0.2-0.2-0.2-0.4v-5.6c0-0.8-0.2-1.5-0.6-2s-1.1-0.8-1.9-0.8c-0.6,0-1.1,0.1-1.6,0.4
		c-0.5,0.3-0.9,0.6-1.2,1s-0.5,0.9-0.5,1.4v5.6c0,0.2-0.1,0.3-0.2,0.4s-0.2,0.2-0.4,0.2c-0.2,0-0.3-0.1-0.4-0.2s-0.2-0.2-0.2-0.4
		v-8.6c0-0.2,0.1-0.3,0.2-0.4s0.2-0.2,0.4-0.2c0.2,0,0.3,0.1,0.4,0.2s0.2,0.2,0.2,0.4v1.1c0.3-0.6,0.8-1,1.5-1.4
		c0.6-0.4,1.3-0.5,2-0.5C251.1,118.4,251.9,118.7,252.5,119.4z"/>
	<path class="st3" d="M264.8,118.8c0.1,0.1,0.2,0.3,0.2,0.4v8.7c0,0.2-0.1,0.3-0.2,0.4s-0.2,0.2-0.4,0.2s-0.3-0.1-0.4-0.2
		c-0.1-0.1-0.2-0.2-0.2-0.4v-1.3c-0.3,0.6-0.8,1.1-1.4,1.5c-0.6,0.4-1.3,0.6-2.1,0.6c-0.9,0-1.6-0.2-2.3-0.7
		c-0.7-0.4-1.2-1.1-1.6-1.9c-0.4-0.8-0.6-1.7-0.6-2.6c0-1,0.2-1.9,0.6-2.6s0.9-1.4,1.6-1.8c0.7-0.4,1.4-0.7,2.3-0.7
		c0.8,0,1.5,0.2,2.1,0.6c0.6,0.4,1.1,0.9,1.4,1.5v-1.2c0-0.2,0.1-0.3,0.2-0.4c0.1-0.1,0.2-0.2,0.4-0.2S264.7,118.7,264.8,118.8z
		 M262.2,127c0.5-0.4,1-0.8,1.3-1.5c0.3-0.6,0.5-1.3,0.5-2.1c0-0.7-0.2-1.4-0.5-2c-0.3-0.6-0.7-1.1-1.3-1.5
		c-0.5-0.4-1.1-0.5-1.8-0.5c-0.7,0-1.3,0.2-1.8,0.5c-0.5,0.3-1,0.8-1.3,1.4c-0.3,0.6-0.5,1.3-0.5,2.1s0.1,1.5,0.4,2.1
		c0.3,0.6,0.7,1.1,1.2,1.5c0.5,0.4,1.1,0.5,1.8,0.5C261,127.6,261.6,127.4,262.2,127z"/>
	<path class="st3" d="M276.7,118.8c0.1,0.1,0.2,0.3,0.2,0.4v8.4c0,1-0.2,1.9-0.6,2.6c-0.4,0.7-1,1.3-1.7,1.6s-1.6,0.6-2.5,0.6
		c-0.5,0-0.9-0.1-1.4-0.2c-0.5-0.1-0.9-0.3-1.3-0.4c-0.4-0.2-0.6-0.4-0.6-0.6c-0.1-0.1-0.1-0.2-0.1-0.3c0-0.1,0.1-0.2,0.2-0.3
		c0.1,0,0.1-0.1,0.2-0.1s0.2,0,0.4,0.1l0.4,0.2c0.8,0.3,1.5,0.5,2.2,0.5c1.1,0,2-0.3,2.7-1c0.6-0.6,1-1.5,1-2.6v-1.2
		c-0.3,0.7-0.8,1.2-1.5,1.6c-0.7,0.4-1.4,0.6-2.2,0.6c-0.9,0-1.7-0.2-2.4-0.7s-1.3-1.1-1.7-1.8c-0.4-0.8-0.6-1.7-0.6-2.6
		c0-1,0.2-1.8,0.6-2.6c0.4-0.8,1-1.4,1.7-1.8c0.7-0.4,1.5-0.7,2.4-0.7c0.8,0,1.6,0.2,2.2,0.6s1.2,0.9,1.5,1.5v-1.2
		c0-0.2,0.1-0.3,0.2-0.4c0.1-0.1,0.2-0.2,0.4-0.2S276.6,118.7,276.7,118.8z M274,127.1c0.6-0.3,1-0.8,1.3-1.4
		c0.3-0.6,0.5-1.3,0.5-2.1c0-0.8-0.2-1.5-0.5-2.1c-0.3-0.6-0.8-1.1-1.3-1.4c-0.6-0.3-1.2-0.5-1.9-0.5c-0.7,0-1.3,0.2-1.9,0.5
		s-1,0.8-1.3,1.5c-0.3,0.6-0.5,1.3-0.5,2.1c0,0.8,0.2,1.5,0.5,2.1c0.3,0.6,0.8,1.1,1.3,1.5c0.6,0.4,1.2,0.5,1.9,0.5
		C272.8,127.6,273.5,127.4,274,127.1z"/>
	<path class="st3" d="M287.7,123.4c-0.1,0.1-0.3,0.2-0.4,0.2H280c0,0.8,0.2,1.5,0.5,2.1c0.3,0.6,0.8,1.1,1.4,1.4
		c0.6,0.4,1.3,0.5,2.1,0.5c0.6,0,1.2-0.1,1.7-0.4c0.5-0.3,0.9-0.6,1.2-1c0.1-0.1,0.3-0.2,0.4-0.2c0.1,0,0.2,0.1,0.3,0.2
		c0.1,0.1,0.2,0.2,0.2,0.3c0,0.1-0.1,0.3-0.2,0.4c-0.4,0.5-0.9,0.9-1.6,1.2c-0.6,0.3-1.3,0.5-2,0.5c-1,0-1.9-0.2-2.6-0.6
		c-0.8-0.4-1.3-1-1.8-1.8c-0.4-0.8-0.6-1.6-0.6-2.7c0-1.1,0.2-2,0.6-2.8c0.4-0.8,1-1.4,1.7-1.8s1.4-0.6,2.2-0.6
		c0.8,0,1.5,0.2,2.2,0.5c0.7,0.4,1.2,0.9,1.6,1.6c0.4,0.7,0.6,1.5,0.7,2.5C287.9,123.1,287.8,123.3,287.7,123.4z M281.3,120.3
		c-0.6,0.5-1,1.3-1.2,2.2h6.6v-0.2c-0.1-0.6-0.3-1.1-0.6-1.5c-0.3-0.4-0.7-0.8-1.2-1c-0.5-0.2-1-0.3-1.5-0.3
		C282.7,119.5,282,119.8,281.3,120.3z"/>
	<path class="st3" d="M304,119.6c0.5,0.7,0.8,1.7,0.8,2.8v5.5c0,0.2-0.1,0.3-0.2,0.4s-0.2,0.2-0.4,0.2c-0.2,0-0.3-0.1-0.4-0.2
		s-0.2-0.2-0.2-0.4v-5.4c0-0.8-0.2-1.5-0.6-2.1c-0.4-0.5-1-0.8-1.9-0.8c-0.5,0-1.1,0.1-1.5,0.4c-0.5,0.3-0.9,0.6-1.2,1.1
		c-0.3,0.4-0.4,0.9-0.4,1.4v5.4c0,0.2-0.1,0.3-0.2,0.4s-0.2,0.2-0.4,0.2s-0.3-0.1-0.4-0.2s-0.2-0.2-0.2-0.4v-5.5
		c0-0.8-0.2-1.5-0.6-2s-1-0.8-1.8-0.8c-0.5,0-1,0.1-1.5,0.4c-0.5,0.3-0.8,0.6-1.1,1c-0.3,0.4-0.4,0.9-0.4,1.4v5.5
		c0,0.2-0.1,0.3-0.2,0.4s-0.2,0.2-0.4,0.2c-0.2,0-0.3-0.1-0.4-0.2s-0.2-0.2-0.2-0.4v-8.6c0-0.2,0.1-0.3,0.2-0.4s0.2-0.2,0.4-0.2
		c0.2,0,0.3,0.1,0.4,0.2s0.2,0.2,0.2,0.4v1.1c0.3-0.5,0.8-1,1.4-1.3c0.6-0.3,1.2-0.5,1.9-0.5c0.7,0,1.4,0.2,1.9,0.5
		c0.5,0.4,0.9,0.9,1.2,1.6c0.3-0.6,0.8-1.1,1.5-1.5c0.7-0.4,1.4-0.6,2.2-0.6C302.6,118.5,303.5,118.9,304,119.6z"/>
	<path class="st3" d="M316,123.4c-0.1,0.1-0.3,0.2-0.4,0.2h-7.3c0,0.8,0.2,1.5,0.5,2.1c0.3,0.6,0.8,1.1,1.4,1.4
		c0.6,0.4,1.3,0.5,2.1,0.5c0.6,0,1.2-0.1,1.7-0.4c0.5-0.3,0.9-0.6,1.2-1c0.1-0.1,0.3-0.2,0.4-0.2c0.1,0,0.2,0.1,0.3,0.2
		c0.1,0.1,0.2,0.2,0.2,0.3c0,0.1-0.1,0.3-0.2,0.4c-0.4,0.5-0.9,0.9-1.6,1.2c-0.6,0.3-1.3,0.5-2,0.5c-1,0-1.9-0.2-2.6-0.6
		c-0.8-0.4-1.3-1-1.8-1.8c-0.4-0.8-0.6-1.6-0.6-2.7c0-1.1,0.2-2,0.6-2.8c0.4-0.8,1-1.4,1.7-1.8s1.4-0.6,2.2-0.6
		c0.8,0,1.5,0.2,2.2,0.5c0.7,0.4,1.2,0.9,1.6,1.6c0.4,0.7,0.6,1.5,0.7,2.5C316.2,123.1,316.1,123.3,316,123.4z M309.7,120.3
		c-0.6,0.5-1,1.3-1.2,2.2h6.6v-0.2c-0.1-0.6-0.3-1.1-0.6-1.5c-0.3-0.4-0.7-0.8-1.2-1c-0.5-0.2-1-0.3-1.5-0.3
		C311,119.5,310.3,119.8,309.7,120.3z"/>
	<path class="st3" d="M325.9,119.4c0.6,0.7,0.8,1.6,0.8,2.8v5.7c0,0.2-0.1,0.3-0.2,0.4c-0.1,0.1-0.3,0.2-0.4,0.2
		c-0.2,0-0.3-0.1-0.4-0.2c-0.1-0.1-0.2-0.2-0.2-0.4v-5.6c0-0.8-0.2-1.5-0.6-2s-1.1-0.8-1.9-0.8c-0.6,0-1.1,0.1-1.6,0.4
		c-0.5,0.3-0.9,0.6-1.2,1s-0.5,0.9-0.5,1.4v5.6c0,0.2-0.1,0.3-0.2,0.4s-0.2,0.2-0.4,0.2c-0.2,0-0.3-0.1-0.4-0.2s-0.2-0.2-0.2-0.4
		v-8.6c0-0.2,0.1-0.3,0.2-0.4s0.2-0.2,0.4-0.2c0.2,0,0.3,0.1,0.4,0.2s0.2,0.2,0.2,0.4v1.1c0.3-0.6,0.8-1,1.5-1.4
		c0.6-0.4,1.3-0.5,2-0.5C324.4,118.4,325.3,118.7,325.9,119.4z"/>
	<path class="st3" d="M331.7,119.7v6.5c0,0.5,0.1,0.8,0.3,1c0.2,0.2,0.4,0.3,0.7,0.3c0.1,0,0.2,0,0.3,0c0.1,0,0.2,0,0.3,0
		c0.1,0,0.2,0,0.3,0.1c0.1,0.1,0.1,0.2,0.1,0.3c0,0.2-0.1,0.3-0.3,0.5c-0.2,0.1-0.5,0.2-0.7,0.2c-0.3,0-0.7,0-0.9-0.1
		c-0.3-0.1-0.5-0.3-0.8-0.6c-0.3-0.3-0.4-0.8-0.4-1.5v-6.5h-1.4c-0.2,0-0.3-0.1-0.4-0.2c-0.1-0.1-0.2-0.2-0.2-0.4s0.1-0.3,0.2-0.4
		c0.1-0.1,0.2-0.2,0.4-0.2h1.4v-2.1c0-0.2,0.1-0.3,0.2-0.4s0.2-0.2,0.4-0.2c0.2,0,0.3,0.1,0.4,0.2s0.2,0.2,0.2,0.4v2.1h1.9
		c0.1,0,0.3,0.1,0.4,0.2c0.1,0.1,0.2,0.2,0.2,0.4c0,0.2-0.1,0.3-0.2,0.4c-0.1,0.1-0.2,0.1-0.4,0.1H331.7z"/>
	<path class="st3" d="M348.5,119.2c0.7,0.4,1.2,1,1.6,1.8c0.4,0.8,0.6,1.6,0.6,2.6c0,1-0.2,1.8-0.6,2.6c-0.4,0.8-0.9,1.4-1.6,1.8
		s-1.5,0.7-2.3,0.7c-0.7,0-1.4-0.2-2.1-0.5c-0.6-0.4-1.1-0.8-1.5-1.4v5.1c0,0.2-0.1,0.3-0.2,0.4s-0.2,0.2-0.4,0.2
		c-0.2,0-0.3-0.1-0.4-0.2s-0.2-0.2-0.2-0.4v-12.6c0-0.2,0.1-0.3,0.2-0.4c0.1-0.1,0.2-0.2,0.4-0.2c0.2,0,0.3,0.1,0.4,0.2
		c0.1,0.1,0.2,0.3,0.2,0.4v1.3c0.3-0.6,0.8-1.1,1.4-1.4c0.6-0.3,1.3-0.5,2.1-0.5C347.1,118.5,347.8,118.7,348.5,119.2z M347.9,127
		c0.5-0.3,1-0.8,1.3-1.4c0.3-0.6,0.5-1.3,0.5-2c0-0.7-0.2-1.4-0.5-2c-0.3-0.6-0.7-1.1-1.3-1.4c-0.5-0.3-1.1-0.5-1.8-0.5
		c-0.7,0-1.3,0.2-1.8,0.5c-0.5,0.3-1,0.8-1.3,1.4c-0.3,0.6-0.4,1.3-0.4,2s0.1,1.4,0.4,2c0.3,0.6,0.7,1.1,1.3,1.4s1.2,0.5,1.8,0.5
		C346.8,127.5,347.4,127.3,347.9,127z"/>
	<path class="st3" d="M354.3,128.3c-0.1,0.1-0.2,0.2-0.4,0.2s-0.3-0.1-0.4-0.2c-0.1-0.1-0.2-0.2-0.2-0.4v-13.1
		c0-0.2,0.1-0.3,0.2-0.4c0.1-0.1,0.2-0.2,0.4-0.2s0.3,0.1,0.4,0.2s0.2,0.2,0.2,0.4v13.1C354.4,128.1,354.4,128.2,354.3,128.3z"/>
	<path class="st3" d="M366,118.8c0.1,0.1,0.2,0.3,0.2,0.4v8.7c0,0.2-0.1,0.3-0.2,0.4s-0.2,0.2-0.4,0.2s-0.3-0.1-0.4-0.2
		c-0.1-0.1-0.2-0.2-0.2-0.4v-1.3c-0.3,0.6-0.8,1.1-1.4,1.5c-0.6,0.4-1.3,0.6-2.1,0.6c-0.9,0-1.6-0.2-2.3-0.7
		c-0.7-0.4-1.2-1.1-1.6-1.9c-0.4-0.8-0.6-1.7-0.6-2.6c0-1,0.2-1.9,0.6-2.6s0.9-1.4,1.6-1.8c0.7-0.4,1.4-0.7,2.3-0.7
		c0.8,0,1.5,0.2,2.1,0.6c0.6,0.4,1.1,0.9,1.4,1.5v-1.2c0-0.2,0.1-0.3,0.2-0.4c0.1-0.1,0.2-0.2,0.4-0.2S365.9,118.7,366,118.8z
		 M363.4,127c0.5-0.4,1-0.8,1.3-1.5c0.3-0.6,0.5-1.3,0.5-2.1c0-0.7-0.2-1.4-0.5-2c-0.3-0.6-0.7-1.1-1.3-1.5
		c-0.5-0.4-1.1-0.5-1.8-0.5c-0.7,0-1.3,0.2-1.8,0.5c-0.5,0.3-1,0.8-1.3,1.4c-0.3,0.6-0.5,1.3-0.5,2.1s0.1,1.5,0.4,2.1
		c0.3,0.6,0.7,1.1,1.2,1.5c0.5,0.4,1.1,0.5,1.8,0.5C362.3,127.6,362.9,127.4,363.4,127z"/>
	<path class="st3" d="M371.1,119.7v6.5c0,0.5,0.1,0.8,0.3,1c0.2,0.2,0.4,0.3,0.7,0.3c0.1,0,0.2,0,0.3,0c0.1,0,0.2,0,0.3,0
		c0.1,0,0.2,0,0.3,0.1c0.1,0.1,0.1,0.2,0.1,0.3c0,0.2-0.1,0.3-0.3,0.5c-0.2,0.1-0.5,0.2-0.7,0.2c-0.3,0-0.7,0-0.9-0.1
		c-0.3-0.1-0.5-0.3-0.8-0.6c-0.3-0.3-0.4-0.8-0.4-1.5v-6.5h-1.4c-0.2,0-0.3-0.1-0.4-0.2c-0.1-0.1-0.2-0.2-0.2-0.4s0.1-0.3,0.2-0.4
		c0.1-0.1,0.2-0.2,0.4-0.2h1.4v-2.1c0-0.2,0.1-0.3,0.2-0.4s0.2-0.2,0.4-0.2c0.2,0,0.3,0.1,0.4,0.2s0.2,0.2,0.2,0.4v2.1h1.9
		c0.1,0,0.3,0.1,0.4,0.2c0.1,0.1,0.2,0.2,0.2,0.4c0,0.2-0.1,0.3-0.2,0.4c-0.1,0.1-0.2,0.1-0.4,0.1H371.1z"/>
	<path class="st3" d="M377.7,115.7c-0.2,0.3-0.3,0.6-0.3,1.1v2h2.2c0.1,0,0.3,0.1,0.4,0.2c0.1,0.1,0.2,0.2,0.2,0.4s-0.1,0.3-0.2,0.4
		c-0.1,0.1-0.2,0.2-0.4,0.2h-2.2v8c0,0.2-0.1,0.3-0.2,0.4c-0.1,0.1-0.2,0.2-0.4,0.2s-0.3-0.1-0.4-0.2s-0.2-0.2-0.2-0.4v-8h-1.4
		c-0.2,0-0.3-0.1-0.4-0.2c-0.1-0.1-0.2-0.2-0.2-0.4c0-0.2,0.1-0.3,0.2-0.4c0.1-0.1,0.2-0.1,0.4-0.1h1.4v-2c0-0.8,0.2-1.4,0.7-1.9
		c0.5-0.4,1.1-0.7,1.9-0.7c0.4,0,0.7,0.1,1,0.2s0.5,0.3,0.5,0.5c0,0.2-0.1,0.3-0.2,0.4c-0.1,0.1-0.2,0.2-0.3,0.2
		c-0.1,0-0.3,0-0.4-0.1c-0.3-0.1-0.5-0.1-0.7-0.1C378.3,115.3,378,115.4,377.7,115.7z"/>
	<path class="st3" d="M390.5,126.1c-0.4,0.8-1,1.4-1.8,1.8s-1.6,0.7-2.5,0.7s-1.7-0.2-2.5-0.7c-0.7-0.4-1.3-1.1-1.8-1.8
		c-0.4-0.8-0.6-1.7-0.6-2.6c0-1,0.2-1.8,0.6-2.6c0.4-0.8,1-1.4,1.8-1.9c0.7-0.4,1.6-0.7,2.5-0.7s1.7,0.2,2.5,0.7
		c0.7,0.5,1.3,1.1,1.8,1.9c0.4,0.8,0.6,1.7,0.6,2.6C391.2,124.5,391,125.4,390.5,126.1z M389.5,121.4c-0.3-0.6-0.8-1.1-1.3-1.5
		c-0.6-0.4-1.2-0.5-1.9-0.5s-1.3,0.2-1.9,0.5c-0.6,0.4-1,0.8-1.3,1.5c-0.3,0.6-0.5,1.3-0.5,2.1c0,0.8,0.2,1.4,0.5,2.1
		c0.3,0.6,0.8,1.1,1.3,1.5c0.6,0.4,1.2,0.5,1.9,0.5s1.3-0.2,1.9-0.5c0.6-0.3,1-0.8,1.3-1.4s0.5-1.3,0.5-2.1S389.8,122.1,389.5,121.4
		z"/>
	<path class="st3" d="M398.8,118.5c0.2,0.1,0.3,0.3,0.3,0.5c0,0.2-0.1,0.3-0.2,0.4c-0.1,0.1-0.2,0.2-0.4,0.2c-0.1,0-0.2,0-0.4-0.1
		c-0.2-0.1-0.4-0.1-0.5-0.1c-0.5,0-0.9,0.2-1.4,0.5c-0.5,0.4-0.9,0.8-1.2,1.4c-0.3,0.6-0.5,1.2-0.5,1.8v4.8c0,0.2-0.1,0.3-0.2,0.4
		s-0.2,0.2-0.4,0.2c-0.2,0-0.3-0.1-0.4-0.2s-0.2-0.2-0.2-0.4v-8.6c0-0.2,0.1-0.3,0.2-0.4s0.2-0.2,0.4-0.2c0.2,0,0.3,0.1,0.4,0.2
		s0.2,0.2,0.2,0.4v1.7c0.3-0.7,0.7-1.3,1.3-1.8c0.6-0.5,1.3-0.7,2.1-0.7C398.4,118.4,398.6,118.4,398.8,118.5z"/>
	<path class="st3" d="M414.7,119.6c0.5,0.7,0.8,1.7,0.8,2.8v5.5c0,0.2-0.1,0.3-0.2,0.4s-0.2,0.2-0.4,0.2c-0.2,0-0.3-0.1-0.4-0.2
		s-0.2-0.2-0.2-0.4v-5.4c0-0.8-0.2-1.5-0.6-2.1c-0.4-0.5-1-0.8-1.9-0.8c-0.5,0-1.1,0.1-1.5,0.4c-0.5,0.3-0.9,0.6-1.2,1.1
		c-0.3,0.4-0.4,0.9-0.4,1.4v5.4c0,0.2-0.1,0.3-0.2,0.4s-0.2,0.2-0.4,0.2s-0.3-0.1-0.4-0.2s-0.2-0.2-0.2-0.4v-5.5
		c0-0.8-0.2-1.5-0.6-2s-1-0.8-1.8-0.8c-0.5,0-1,0.1-1.5,0.4c-0.5,0.3-0.8,0.6-1.1,1c-0.3,0.4-0.4,0.9-0.4,1.4v5.5
		c0,0.2-0.1,0.3-0.2,0.4s-0.2,0.2-0.4,0.2c-0.2,0-0.3-0.1-0.4-0.2s-0.2-0.2-0.2-0.4v-8.6c0-0.2,0.1-0.3,0.2-0.4s0.2-0.2,0.4-0.2
		c0.2,0,0.3,0.1,0.4,0.2s0.2,0.2,0.2,0.4v1.1c0.3-0.5,0.8-1,1.4-1.3c0.6-0.3,1.2-0.5,1.9-0.5c0.7,0,1.4,0.2,1.9,0.5
		c0.5,0.4,0.9,0.9,1.2,1.6c0.3-0.6,0.8-1.1,1.5-1.5c0.7-0.4,1.4-0.6,2.2-0.6C413.3,118.5,414.2,118.9,414.7,119.6z"/>
</g>
<g>
	<path d="M145.5,175.8c-1.5-1-2.6-2.2-3.4-3.6c-0.8-1.4-1.2-3-1.2-4.7s0.4-3.3,1.2-4.7s1.9-2.7,3.4-3.6c0.2-0.1,0.3-0.2,0.5-0.2
		c0.3,0,0.5,0.1,0.7,0.3s0.3,0.4,0.3,0.7c0,0.3-0.1,0.6-0.4,0.8c-1.1,0.8-1.9,1.9-2.5,3s-0.8,2.4-0.8,3.7c0,1.3,0.3,2.6,0.8,3.8
		c0.5,1.2,1.4,2.2,2.5,2.9c0.3,0.2,0.4,0.5,0.4,0.8c0,0.2-0.1,0.5-0.3,0.7c-0.2,0.2-0.4,0.3-0.7,0.3
		C145.8,176,145.7,175.9,145.5,175.8z"/>
	<path d="M157,170.5c0.2,0.2,0.3,0.5,0.3,0.8c0,0.3-0.1,0.6-0.3,0.8s-0.5,0.3-0.8,0.3h-6.3c-0.3,0-0.6-0.1-0.8-0.3
		c-0.2-0.2-0.3-0.5-0.3-0.8v-11.1c0-0.3,0.1-0.6,0.3-0.8c0.2-0.2,0.5-0.3,0.9-0.3c0.3,0,0.6,0.1,0.8,0.3c0.2,0.2,0.3,0.5,0.3,0.8
		v10.1h5C156.5,170.2,156.8,170.3,157,170.5z"/>
	<path d="M168.6,170.1c-0.5,0.8-1.1,1.5-1.9,1.9c-0.8,0.5-1.7,0.7-2.7,0.7c-1,0-1.9-0.2-2.7-0.7c-0.8-0.4-1.4-1.1-1.9-1.9
		s-0.7-1.7-0.7-2.8s0.2-2,0.7-2.8s1.1-1.5,1.9-1.9c0.8-0.5,1.7-0.7,2.7-0.7c1,0,1.8,0.2,2.7,0.7c0.8,0.5,1.4,1.1,1.9,1.9
		s0.7,1.7,0.7,2.8S169.1,169.3,168.6,170.1z M166.6,165.6c-0.3-0.5-0.6-0.9-1.1-1.1c-0.4-0.3-0.9-0.4-1.5-0.4c-0.5,0-1,0.1-1.5,0.4
		c-0.4,0.3-0.8,0.7-1.1,1.1s-0.4,1.1-0.4,1.7s0.1,1.2,0.4,1.7c0.3,0.5,0.6,0.9,1.1,1.1c0.4,0.3,0.9,0.4,1.5,0.4c0.5,0,1-0.1,1.5-0.4
		c0.4-0.3,0.8-0.6,1.1-1.1c0.3-0.5,0.4-1,0.4-1.7S166.8,166.1,166.6,165.6z"/>
	<path d="M178.4,162.5c0.7,0.3,1,0.8,1,1.4c0,0.3-0.1,0.5-0.3,0.7c-0.2,0.2-0.4,0.3-0.7,0.3c-0.2,0-0.4,0-0.5-0.1
		c-0.1-0.1-0.3-0.1-0.4-0.2c-0.1-0.1-0.2-0.2-0.4-0.2c-0.1-0.1-0.3-0.1-0.6-0.2c-0.3-0.1-0.5-0.1-0.6-0.1c-1,0-1.7,0.3-2.3,0.9
		c-0.5,0.6-0.8,1.4-0.8,2.3c0,0.9,0.3,1.7,0.8,2.3s1.3,0.9,2.1,0.9c0.6,0,1.1-0.1,1.4-0.2c0.1,0,0.2-0.1,0.3-0.2
		c0.1-0.1,0.3-0.2,0.4-0.2c0.1-0.1,0.3-0.1,0.4-0.1c0.3,0,0.6,0.1,0.8,0.3c0.2,0.2,0.3,0.5,0.3,0.8c0,0.3-0.2,0.6-0.5,0.9
		c-0.4,0.3-0.8,0.5-1.4,0.6c-0.6,0.2-1.2,0.2-1.9,0.2c-1,0-1.9-0.2-2.6-0.7c-0.8-0.5-1.3-1.1-1.7-1.9c-0.4-0.8-0.6-1.7-0.6-2.7
		c0-1,0.2-2,0.6-2.8c0.4-0.8,1-1.4,1.8-1.9c0.8-0.5,1.6-0.7,2.6-0.7C176.8,162,177.7,162.1,178.4,162.5z"/>
	<path d="M190.3,162.3c0.2,0.2,0.3,0.5,0.3,0.8v8.2c0,0.3-0.1,0.6-0.3,0.8c-0.2,0.2-0.5,0.3-0.8,0.3s-0.6-0.1-0.8-0.3
		c-0.2-0.2-0.3-0.5-0.3-0.8c-0.3,0.4-0.8,0.7-1.3,1c-0.5,0.3-1.1,0.4-1.7,0.4c-0.9,0-1.7-0.2-2.4-0.7c-0.7-0.5-1.3-1.1-1.7-1.9
		c-0.4-0.8-0.6-1.7-0.6-2.8s0.2-2,0.6-2.8c0.4-0.8,1-1.5,1.7-1.9c0.7-0.5,1.5-0.7,2.4-0.7c0.6,0,1.2,0.1,1.7,0.3
		c0.5,0.2,1,0.5,1.4,0.9v0c0-0.3,0.1-0.6,0.3-0.8c0.2-0.2,0.5-0.3,0.8-0.3S190.1,162.1,190.3,162.3z M187.6,169.6
		c0.5-0.6,0.8-1.4,0.8-2.3s-0.3-1.7-0.8-2.3s-1.2-0.9-2-0.9c-0.8,0-1.5,0.3-2,0.9s-0.8,1.4-0.8,2.3s0.3,1.7,0.8,2.3s1.2,0.9,2,0.9
		S187.1,170.2,187.6,169.6z"/>
	<path d="M195.3,172.1c-0.2,0.2-0.5,0.3-0.8,0.3c-0.3,0-0.6-0.1-0.8-0.3c-0.2-0.2-0.3-0.5-0.3-0.8v-11.9c0-0.3,0.1-0.6,0.3-0.8
		s0.5-0.3,0.8-0.3c0.3,0,0.6,0.1,0.8,0.3s0.3,0.5,0.3,0.8v11.9C195.7,171.6,195.6,171.9,195.3,172.1z"/>
	<path d="M214.6,171.4c0,0.3-0.1,0.6-0.3,0.8s-0.5,0.3-0.8,0.3c-0.2,0-0.4-0.1-0.6-0.2c-0.2-0.1-0.3-0.3-0.4-0.6l-1-2.3h-5.7l-1,2.4
		c-0.1,0.2-0.2,0.4-0.4,0.6c-0.2,0.1-0.4,0.2-0.6,0.2c-0.3,0-0.6-0.1-0.8-0.3s-0.3-0.4-0.3-0.7c0-0.1,0-0.2,0.1-0.4l4.8-11.5
		c0.1-0.3,0.3-0.5,0.5-0.6s0.4-0.2,0.7-0.2c0.2,0,0.4,0.1,0.6,0.2c0.2,0.1,0.3,0.3,0.4,0.6l4.7,11.3
		C214.6,171.1,214.6,171.3,214.6,171.4z M206.7,167.2h3.9l-1.9-4.5L206.7,167.2z"/>
	<path d="M224.4,162.5c0.2,0.2,0.3,0.5,0.3,0.8v4.9c0,1.4-0.4,2.5-1.1,3.3c-0.8,0.8-1.9,1.2-3.3,1.2s-2.5-0.4-3.3-1.2
		c-0.8-0.8-1.1-1.9-1.1-3.3v-4.9c0-0.3,0.1-0.6,0.3-0.8c0.2-0.2,0.5-0.3,0.8-0.3s0.6,0.1,0.8,0.3c0.2,0.2,0.3,0.5,0.3,0.8v4.9
		c0,0.8,0.2,1.4,0.5,1.7c0.3,0.4,0.9,0.6,1.6,0.6c0.7,0,1.2-0.2,1.6-0.6c0.3-0.4,0.5-1,0.5-1.7v-4.9c0-0.3,0.1-0.6,0.3-0.8
		c0.2-0.2,0.5-0.3,0.8-0.3S224.2,162.3,224.4,162.5z"/>
	<path d="M232.7,170.5c0.1,0.2,0.2,0.4,0.2,0.7c0,0.3-0.2,0.6-0.6,0.9c-0.4,0.2-0.8,0.4-1.3,0.4c-0.8,0-1.5-0.2-2-0.5
		s-0.8-1.1-0.8-2.2v-5.3h-0.9c-0.3,0-0.6-0.1-0.8-0.3c-0.2-0.2-0.3-0.5-0.3-0.8c0-0.3,0.1-0.5,0.3-0.7c0.2-0.2,0.5-0.3,0.8-0.3h0.9
		v-1.2c0-0.3,0.1-0.6,0.3-0.8c0.2-0.2,0.5-0.3,0.8-0.3c0.3,0,0.6,0.1,0.8,0.3c0.2,0.2,0.3,0.5,0.3,0.8v1.2h1.4
		c0.3,0,0.6,0.1,0.8,0.3c0.2,0.2,0.3,0.5,0.3,0.8c0,0.3-0.1,0.5-0.3,0.7c-0.2,0.2-0.5,0.3-0.8,0.3h-1.4v5.2c0,0.3,0.1,0.5,0.2,0.6
		c0.1,0.1,0.3,0.2,0.6,0.2c0.1,0,0.2,0,0.4-0.1c0.2-0.1,0.3-0.1,0.4-0.1C232.4,170.3,232.5,170.4,232.7,170.5z"/>
	<path d="M243.2,163.1c0.5,0.8,0.7,1.9,0.7,3.2v4.9c0,0.3-0.1,0.6-0.3,0.8c-0.2,0.2-0.5,0.3-0.8,0.3s-0.6-0.1-0.8-0.3
		c-0.2-0.2-0.3-0.5-0.3-0.8v-4.9c0-0.7-0.1-1.3-0.4-1.7c-0.3-0.4-0.8-0.6-1.5-0.6c-0.7,0-1.3,0.2-1.7,0.6c-0.4,0.4-0.6,1-0.6,1.6
		v4.9c0,0.3-0.1,0.6-0.3,0.8c-0.2,0.2-0.5,0.3-0.8,0.3s-0.6-0.1-0.8-0.3c-0.2-0.2-0.3-0.5-0.3-0.8v-11.9c0-0.3,0.1-0.6,0.3-0.8
		s0.5-0.3,0.8-0.3s0.6,0.1,0.8,0.3s0.3,0.5,0.3,0.8v4.3c0.3-0.5,0.8-0.9,1.3-1.2s1.1-0.5,1.8-0.5C241.8,162,242.7,162.3,243.2,163.1
		z"/>
	<path d="M255.6,170.1c-0.5,0.8-1.1,1.5-1.9,1.9c-0.8,0.5-1.7,0.7-2.7,0.7c-1,0-1.9-0.2-2.7-0.7c-0.8-0.4-1.4-1.1-1.9-1.9
		s-0.7-1.7-0.7-2.8s0.2-2,0.7-2.8s1.1-1.5,1.9-1.9c0.8-0.5,1.7-0.7,2.7-0.7c1,0,1.8,0.2,2.7,0.7c0.8,0.5,1.4,1.1,1.9,1.9
		s0.7,1.7,0.7,2.8S256.1,169.3,255.6,170.1z M253.6,165.6c-0.3-0.5-0.6-0.9-1.1-1.1c-0.4-0.3-0.9-0.4-1.5-0.4c-0.5,0-1,0.1-1.5,0.4
		c-0.4,0.3-0.8,0.7-1.1,1.1s-0.4,1.1-0.4,1.7s0.1,1.2,0.4,1.7c0.3,0.5,0.6,0.9,1.1,1.1c0.4,0.3,0.9,0.4,1.5,0.4c0.5,0,1-0.1,1.5-0.4
		c0.4-0.3,0.8-0.6,1.1-1.1c0.3-0.5,0.4-1,0.4-1.7S253.9,166.1,253.6,165.6z"/>
	<path d="M264.6,162.3c0.3,0.2,0.4,0.5,0.4,0.8c0,0.4-0.1,0.7-0.3,0.9s-0.5,0.3-0.7,0.3c-0.2,0-0.4,0-0.7-0.1c0,0-0.1,0-0.3-0.1
		c-0.1,0-0.3-0.1-0.4-0.1c-0.3,0-0.7,0.1-1,0.3c-0.3,0.2-0.6,0.5-0.8,0.9s-0.3,0.9-0.3,1.5v4.6c0,0.3-0.1,0.6-0.3,0.8
		c-0.2,0.2-0.5,0.3-0.8,0.3s-0.6-0.1-0.8-0.3c-0.2-0.2-0.3-0.5-0.3-0.8v-8c0-0.3,0.1-0.6,0.3-0.8c0.2-0.2,0.5-0.3,0.8-0.3
		s0.6,0.1,0.8,0.3c0.2,0.2,0.3,0.5,0.3,0.8v0.3c0.3-0.5,0.7-0.9,1.3-1.2s1.1-0.4,1.8-0.4C264,162,264.3,162.1,264.6,162.3z"/>
	<path d="M266.7,160.7c-0.2-0.1-0.3-0.4-0.3-0.8v-0.4c0-0.4,0.1-0.6,0.3-0.8c0.2-0.1,0.5-0.2,0.9-0.2c0.5,0,0.8,0.1,0.9,0.2
		c0.2,0.1,0.3,0.4,0.3,0.8v0.4c0,0.4-0.1,0.6-0.3,0.8c-0.2,0.1-0.5,0.2-1,0.2C267.2,160.9,266.9,160.8,266.7,160.7z M268.5,172.1
		c-0.2,0.2-0.5,0.3-0.8,0.3c-0.3,0-0.6-0.1-0.8-0.3c-0.2-0.2-0.3-0.5-0.3-0.8v-8c0-0.3,0.1-0.6,0.3-0.8c0.2-0.2,0.5-0.3,0.8-0.3
		c0.3,0,0.6,0.1,0.8,0.3c0.2,0.2,0.3,0.5,0.3,0.8v8C268.8,171.6,268.7,171.9,268.5,172.1z"/>
	<path d="M276.6,170.5c0.1,0.2,0.2,0.4,0.2,0.7c0,0.3-0.2,0.6-0.6,0.9c-0.4,0.2-0.8,0.4-1.3,0.4c-0.8,0-1.5-0.2-2-0.5
		s-0.8-1.1-0.8-2.2v-5.3h-0.9c-0.3,0-0.6-0.1-0.8-0.3c-0.2-0.2-0.3-0.5-0.3-0.8c0-0.3,0.1-0.5,0.3-0.7c0.2-0.2,0.5-0.3,0.8-0.3h0.9
		v-1.2c0-0.3,0.1-0.6,0.3-0.8c0.2-0.2,0.5-0.3,0.8-0.3c0.3,0,0.6,0.1,0.8,0.3c0.2,0.2,0.3,0.5,0.3,0.8v1.2h1.4
		c0.3,0,0.6,0.1,0.8,0.3c0.2,0.2,0.3,0.5,0.3,0.8c0,0.3-0.1,0.5-0.3,0.7c-0.2,0.2-0.5,0.3-0.8,0.3h-1.4v5.2c0,0.3,0.1,0.5,0.2,0.6
		c0.1,0.1,0.3,0.2,0.6,0.2c0.1,0,0.2,0,0.4-0.1c0.2-0.1,0.3-0.1,0.4-0.1C276.3,170.3,276.5,170.4,276.6,170.5z"/>
	<path d="M287.6,162.5c0.2,0.2,0.3,0.5,0.3,0.8v8.2c0,1.7-0.5,2.9-1.3,3.7c-0.9,0.8-2.1,1.1-3.6,1.1c-0.4,0-0.9,0-1.3-0.1
		c-0.5-0.1-0.8-0.2-1.1-0.3c-0.6-0.3-0.9-0.6-0.9-1.1c0-0.1,0-0.2,0.1-0.3c0.1-0.3,0.2-0.5,0.4-0.6c0.2-0.1,0.4-0.2,0.6-0.2
		c0.1,0,0.3,0,0.4,0.1c0.1,0,0.2,0.1,0.5,0.2s0.5,0.2,0.7,0.2c0.3,0.1,0.5,0.1,0.8,0.1c0.9,0,1.6-0.2,2-0.6c0.4-0.4,0.6-1.1,0.6-2
		v-0.2c-0.7,0.8-1.7,1.3-3.1,1.3c-0.7,0-1.3-0.2-1.8-0.5c-0.5-0.3-0.9-0.8-1.2-1.3c-0.3-0.6-0.4-1.2-0.4-1.9v-5.6
		c0-0.3,0.1-0.6,0.3-0.8c0.2-0.2,0.5-0.3,0.8-0.3c0.3,0,0.6,0.1,0.8,0.3c0.2,0.2,0.3,0.5,0.3,0.8v4.9c0,0.8,0.2,1.4,0.5,1.7
		c0.4,0.4,0.9,0.5,1.6,0.5c0.7,0,1.2-0.2,1.6-0.6c0.4-0.4,0.6-1,0.6-1.7v-4.9c0-0.3,0.1-0.6,0.3-0.8c0.2-0.2,0.5-0.3,0.8-0.3
		C287.1,162.1,287.3,162.3,287.6,162.5z"/>
	<path d="M304.5,162.5c0.2,0.2,0.3,0.4,0.3,0.7c0,0.2-0.1,0.3-0.2,0.6l-3.6,7.9c-0.1,0.2-0.2,0.4-0.4,0.5s-0.4,0.2-0.6,0.2l-0.2,0
		c-0.2,0-0.4-0.1-0.6-0.2c-0.2-0.1-0.3-0.3-0.4-0.5l-3.6-7.9c-0.1-0.2-0.1-0.4-0.1-0.6c0-0.3,0.1-0.5,0.3-0.7s0.5-0.3,0.8-0.3
		c0.2,0,0.5,0.1,0.7,0.2c0.2,0.1,0.4,0.3,0.5,0.5l2.7,6.1l2.6-6.1c0.1-0.2,0.2-0.4,0.4-0.6c0.2-0.1,0.4-0.2,0.6-0.2
		C304,162.2,304.3,162.3,304.5,162.5z"/>
	<path d="M315.4,167.8c-0.2,0.2-0.5,0.3-0.8,0.3h-6.4c0.2,0.8,0.5,1.4,1.1,1.8c0.6,0.4,1.2,0.6,1.9,0.6c0.5,0,0.9,0,1.2-0.1
		c0.3-0.1,0.5-0.2,0.7-0.3s0.3-0.2,0.4-0.2c0.2-0.1,0.4-0.2,0.7-0.2c0.3,0,0.5,0.1,0.7,0.3c0.2,0.2,0.3,0.4,0.3,0.7
		c0,0.3-0.2,0.7-0.5,0.9c-0.4,0.3-0.8,0.5-1.4,0.8c-0.6,0.2-1.2,0.3-1.8,0.3c-1.1,0-2-0.2-2.8-0.7c-0.8-0.4-1.4-1.1-1.9-1.9
		c-0.4-0.8-0.7-1.7-0.7-2.7c0-1.1,0.2-2.1,0.7-2.9s1.1-1.5,1.8-1.9c0.8-0.4,1.6-0.7,2.4-0.7c0.8,0,1.6,0.2,2.4,0.7
		c0.8,0.5,1.4,1.1,1.8,1.9c0.4,0.8,0.7,1.6,0.7,2.5C315.8,167.4,315.7,167.6,315.4,167.8z M308.3,166.2h5.1V166
		c-0.1-0.5-0.3-1-0.8-1.4c-0.5-0.4-1-0.6-1.6-0.6C309.4,164.1,308.5,164.8,308.3,166.2z"/>
	<path d="M324.1,162.3c0.3,0.2,0.4,0.5,0.4,0.8c0,0.4-0.1,0.7-0.3,0.9c-0.2,0.2-0.4,0.3-0.7,0.3c-0.2,0-0.4,0-0.7-0.1
		c0,0-0.1,0-0.3-0.1c-0.1,0-0.3-0.1-0.4-0.1c-0.3,0-0.7,0.1-1,0.3c-0.3,0.2-0.6,0.5-0.8,0.9s-0.3,0.9-0.3,1.5v4.6
		c0,0.3-0.1,0.6-0.3,0.8c-0.2,0.2-0.5,0.3-0.8,0.3c-0.3,0-0.6-0.1-0.8-0.3c-0.2-0.2-0.3-0.5-0.3-0.8v-8c0-0.3,0.1-0.6,0.3-0.8
		c0.2-0.2,0.5-0.3,0.8-0.3c0.3,0,0.6,0.1,0.8,0.3c0.2,0.2,0.3,0.5,0.3,0.8v0.3c0.3-0.5,0.7-0.9,1.3-1.2s1.1-0.4,1.8-0.4
		C323.5,162,323.8,162.1,324.1,162.3z"/>
	<path d="M323.9,172.1c-0.2-0.2-0.3-0.5-0.3-0.9V171c0-0.4,0.1-0.7,0.3-0.9c0.2-0.2,0.5-0.3,0.9-0.3h0.3c0.4,0,0.7,0.1,0.9,0.3
		s0.3,0.5,0.3,0.9v0.3c0,0.4-0.1,0.7-0.3,0.9s-0.5,0.3-0.9,0.3h-0.3C324.4,172.4,324.1,172.3,323.9,172.1z"/>
	<path d="M333.3,175.6c-0.2-0.2-0.3-0.4-0.3-0.7c0-0.3,0.1-0.6,0.4-0.8c1.1-0.8,1.9-1.9,2.5-3s0.8-2.4,0.8-3.7
		c0-1.4-0.3-2.6-0.8-3.8c-0.5-1.2-1.4-2.2-2.5-2.9c-0.3-0.2-0.4-0.4-0.4-0.8c0-0.2,0.1-0.5,0.3-0.7c0.2-0.2,0.4-0.3,0.7-0.3
		c0.2,0,0.4,0.1,0.5,0.2c1.5,1,2.6,2.2,3.4,3.6c0.8,1.4,1.2,3,1.2,4.7s-0.4,3.3-1.2,4.7c-0.8,1.4-1.9,2.7-3.4,3.6
		c-0.2,0.1-0.3,0.2-0.5,0.2C333.7,176,333.5,175.9,333.3,175.6z"/>
</g>
</svg>
